<?xml version="1.0" encoding="UTF-8" standalone="no"?>
<!-- Created with Inkscape (http://www.inkscape.org/) -->

<svg
   xmlns:dc="http://purl.org/dc/elements/1.1/"
   xmlns:cc="http://creativecommons.org/ns#"
   xmlns:rdf="http://www.w3.org/1999/02/22-rdf-syntax-ns#"
   xmlns:svg="http://www.w3.org/2000/svg"
   xmlns="http://www.w3.org/2000/svg"
   xmlns:sodipodi="http://sodipodi.sourceforge.net/DTD/sodipodi-0.dtd"
   xmlns:inkscape="http://www.inkscape.org/namespaces/inkscape"
   width="2.4147108in"
   height="2.8073335in"
   viewBox="0 0 61.333653 71.30627"
   version="1.1"
   id="svg945"
   inkscape:version="0.92.0 r15299"
   sodipodi:docname="dog.svg">
  <defs
     id="defs939" />
  <sodipodi:namedview
     id="base"
     pagecolor="#ffffff"
     bordercolor="#666666"
     borderopacity="1.0"
     inkscape:pageopacity="0.0"
     inkscape:pageshadow="2"
     inkscape:zoom="0.49497475"
     inkscape:cx="-216.22029"
     inkscape:cy="247.00539"
     inkscape:document-units="mm"
     inkscape:current-layer="layer1"
     showgrid="false"
     inkscape:window-width="1366"
     inkscape:window-height="705"
     inkscape:window-x="-8"
     inkscape:window-y="-8"
     inkscape:window-maximized="1"
     units="in"
     fit-margin-top="0"
     fit-margin-left="0"
     fit-margin-right="0"
     fit-margin-bottom="0" />
  <metadata
     id="metadata942">
    <rdf:RDF>
      <cc:Work
         rdf:about="">
        <dc:format>image/svg+xml</dc:format>
        <dc:type
           rdf:resource="http://purl.org/dc/dcmitype/StillImage" />
        <dc:title></dc:title>
      </cc:Work>
    </rdf:RDF>
  </metadata>
  <g
     inkscape:label="Layer 1"
     inkscape:groupmode="layer"
     id="layer1"
     transform="translate(-126.44322,-92.452296)">
    <g
       id="g1313">
      <g
         id="g422"
         transform="matrix(0.35277777,0,0,-0.35277777,145.83378,106.46037)">
        <path
           d="m 0,0 c 0,0 -34.657,45.38 -48.711,39.114 -14.053,-6.267 -1.2,-57.817 7.159,-82.362 l 39.965,27.571 z"
           style="fill:#5f5f5d;fill-opacity:1;fill-rule:nonzero;stroke:none"
           id="path424"
           inkscape:connector-curvature="0" />
      </g>
      <g
         id="g426"
         transform="matrix(0.35277777,0,0,-0.35277777,143.31749,110.44496)">
        <path
           d="m 0,0 c 0,0 -24.794,36.184 -32.007,32.968 -7.212,-3.216 5.179,-38.882 9.469,-51.478 l 20.72,15.77 z"
           style="fill:#f3f4e7;fill-opacity:1;fill-rule:nonzero;stroke:none"
           id="path428"
           inkscape:connector-curvature="0" />
      </g>
      <g
         id="g430"
         transform="matrix(0.35277777,0,0,-0.35277777,168.38626,106.46037)">
        <path
           d="m 0,0 c 0,0 34.656,45.38 48.71,39.114 14.055,-6.267 1.201,-57.817 -7.158,-82.362 L 1.587,-15.677 Z"
           style="fill:#5f5f5d;fill-opacity:1;fill-rule:nonzero;stroke:none"
           id="path432"
           inkscape:connector-curvature="0" />
      </g>
      <g
         id="g434"
         transform="matrix(0.35277777,0,0,-0.35277777,170.90238,110.44496)">
        <path
           d="M 0,0 C 0,0 24.794,36.184 32.007,32.968 39.22,29.752 26.828,-5.914 22.539,-18.51 L 1.818,-2.74 Z"
           style="fill:#f3f4e7;fill-opacity:1;fill-rule:nonzero;stroke:none"
           id="path436"
           inkscape:connector-curvature="0" />
      </g>
      <g
         id="g438"
         transform="matrix(0.35277777,0,0,-0.35277777,186.1023,125.52451)">
        <path
           d="m 0,0 c -9.824,54.006 -65.292,58.013 -79.628,58.869 v 0.112 c 0,0 -0.805,0.023 -2.21,-0.013 -1.403,0.036 -2.211,0.013 -2.211,0.013 V 58.869 C -98.384,58.013 -153.792,53.993 -163.678,0 c -15.059,-82.265 32.555,-105.479 79.629,-108.247 v -0.133 c 0.731,0 1.472,0.046 2.211,0.067 0.736,-0.021 1.479,-0.067 2.21,-0.067 v 0.133 C -32.556,-105.479 12.93,-71.07 0,0"
           style="fill:#f3f4e7;fill-opacity:1;fill-rule:nonzero;stroke:none"
           id="path440"
           inkscape:connector-curvature="0" />
      </g>
      <g
         id="g442"
         transform="matrix(0.35277777,0,0,-0.35277777,170.98627,132.92456)">
        <path
           d="m 0,0 c 0,-5.318 -2.74,-9.624 -6.117,-9.624 -3.378,0 -6.116,4.306 -6.116,9.624 0,5.319 2.738,9.626 6.116,9.626 C -2.74,9.626 0,5.319 0,0"
           style="fill:#000000;fill-opacity:1;fill-rule:nonzero;stroke:none"
           id="path444"
           inkscape:connector-curvature="0" />
      </g>
      <g
         id="g446"
         transform="matrix(0.35277777,0,0,-0.35277777,169.27336,130.90677)">
        <path
           d="m 0,0 c 0,-0.938 -1.018,-1.696 -2.272,-1.696 -1.252,0 -2.269,0.758 -2.269,1.696 0,0.937 1.017,1.695 2.269,1.695 C -1.018,1.695 0,0.937 0,0"
           style="fill:#f1edec;fill-opacity:1;fill-rule:nonzero;stroke:none"
           id="path448"
           inkscape:connector-curvature="0" />
      </g>
      <g
         id="g450"
         transform="matrix(0.35277777,0,0,-0.35277777,149.04116,132.92456)">
        <path
           d="m 0,0 c 0,-5.318 -2.742,-9.624 -6.118,-9.624 -3.379,0 -6.117,4.306 -6.117,9.624 0,5.319 2.738,9.626 6.117,9.626 C -2.742,9.626 0,5.319 0,0"
           style="fill:#000000;fill-opacity:1;fill-rule:nonzero;stroke:none"
           id="path452"
           inkscape:connector-curvature="0" />
      </g>
      <g
         id="g454"
         transform="matrix(0.35277777,0,0,-0.35277777,147.32793,130.90677)">
        <path
           d="m 0,0 c 0,-0.938 -1.019,-1.696 -2.272,-1.696 -1.251,0 -2.268,0.758 -2.268,1.696 0,0.937 1.017,1.695 2.268,1.695 C -1.019,1.695 0,0.937 0,0"
           style="fill:#f1edec;fill-opacity:1;fill-rule:nonzero;stroke:none"
           id="path456"
           inkscape:connector-curvature="0" />
      </g>
      <g
         id="g458"
         transform="matrix(0.35277777,0,0,-0.35277777,157.30509,141.28546)">
        <path
           d="m 0,0 c 0,0 -15.515,0.433 -18.532,-8.188 0,0 0.861,-15.947 18.532,-15.947 17.671,0 18.532,15.947 18.532,15.947 C 15.516,0.433 0,0 0,0"
           style="fill:#000000;fill-opacity:1;fill-rule:nonzero;stroke:none"
           id="path460"
           inkscape:connector-curvature="0" />
      </g>
      <g
         id="g462"
         transform="matrix(0.35277777,0,0,-0.35277777,167.57233,148.66074)">
        <path
           d="m 0,0 c -0.085,-0.576 -2.262,-14.062 -13.884,-14.062 -10.616,0 -13.432,11.361 -13.91,13.766 0.003,0.017 0.008,0.032 0.008,0.037 h -0.015 c -0.038,0.206 -0.063,0.347 -0.068,0.396 l -1.235,-0.191 -1.232,0.191 c -0.006,-0.049 -0.03,-0.19 -0.068,-0.396 h -0.016 c 0,-0.005 0.004,-0.02 0.005,-0.037 -0.477,-2.405 -3.29,-13.766 -13.909,-13.766 -11.62,0 -13.798,13.486 -13.884,14.062 l -2.552,-0.386 c 0.024,-0.162 2.583,-16.254 16.436,-16.254 9.073,0 13.345,6.959 15.22,11.809 1.875,-4.85 6.147,-11.809 15.22,-11.809 13.858,0 16.413,16.092 16.437,16.254 z"
           style="fill:#000000;fill-opacity:1;fill-rule:nonzero;stroke:none"
           id="path464"
           inkscape:connector-curvature="0" />
      </g>
      <g
         id="g466"
         transform="matrix(0.35277777,0,0,-0.35277777,186.51572,125.51725)">
        <path
           d="m 0,0 c -9.965,54.775 -66.224,58.841 -80.764,59.71 v 0.112 c 0,0 -0.816,0.024 -2.242,-0.011 -1.423,0.035 -2.242,0.011 -2.242,0.011 V 59.71 c -14.54,-0.869 -70.738,-4.946 -80.764,-59.71 -4.717,-25.767 -2.647,-45.816 2.872,-61.313 l 1.295,-1.517 c 0,0 20.862,11.149 21.342,37.783 0.48,26.633 6.119,42.345 22.785,42.345 17.177,0 22.666,-14.931 26.321,-23.153 h 16.169 c 3.655,8.222 8.916,23.153 26.32,23.153 19.111,0 22.306,-15.712 22.786,-42.345 0.396,-21.993 14.086,-33.34 19.35,-36.655 C 0.525,-45.437 4.548,-24.995 0,0"
           style="fill:#5f5f5d;fill-opacity:1;fill-rule:nonzero;stroke:none"
           id="path468"
           inkscape:connector-curvature="0" />
      </g>
    </g>
  </g>
</svg>
